[
    {
        "question": "Where do we learn about God, ourselves, and the world around us?",
        "answer": "The Bible tells us all we need to know about God, us and our world.",
        "address": "2 Timothy 3:16-17"
    },
    {
        "question": "Who wrote the Bible?",
        "answer": "The Bible was written by men inspired by God.",
        "address": "2 Peter 1:20-21"
    },
    {
        "question": "Can we trust the Word of God?",
        "answer": "Yes, His Word will never fail.",
        "address": "Psalm 19:7-8"
    },
    {
        "question": "Who is God?",
        "answer": "God is the first and the best of all beings. There is only one living and true God.",
        "address": "Deuteronomy 6:4"
    },
    {
        "question": "What is God like?",
        "answer": "God is Holy and Sovereign.",
        "address": "1 Timothy 1:17"
    },
    {
        "question": "What do we mean when we say God is holy?",
        "answer": "“God is Holy” means that He is unique because He alone is perfect in power, perfect in love and perfect in purity.",
        "address": "1 Samuel 2:2"
    },
    {
        "question": "What does it mean that God is sovereign?",
        "answer": "“God is sovereign” means that God rules over the entire world.",
        "address": "Psalm 135:8"
    },
    {
        "question": "What is The Trinity?",
        "answer": "There is one God existing in three persons:  The Father, The Son and The Holy Spirit.",
        "address": "Luke 3:21-22"
    },
    {
        "question": "What does the Bible tell us about Jesus?",
        "answer": "Jesus is God’s one and only eternal Son.",
        "address": "John 3:16"
    },
    {
        "question": "How good a life did Jesus live?",
        "answer": "Jesus lived a perfect and sinless life.",
        "address": "Hebrews 4:14-15"
    },
    {
        "question": "What is sin?",
        "answer": "Sin is anything we do that displeases God.",
        "address": "1 John 3:4"
    },
    {
        "question": "What is the incarnation of Jesus?",
        "answer": "Jesus became fully man while remaining fully God.",
        "address": "John 1:14"
    },
    {
        "question": "Why did Jesus come to earth as a man?",
        "answer": "Jesus became a man so that He could die on the cross as a substitute for us.",
        "address": "1 Peter 2:24"
    },
    {
        "question": "Why did we need Jesus to die in our place?",
        "answer": "If Jesus had not been punished for our sin we would have been punished for our sin forever.",
        "address": "Romans 6:23"
    },
    {
        "question": "Why did God punish Jesus instead of us?",
        "answer": "God punished Jesus for our sin to glorify Himself by demonstrating His justice against sin and His love for us.",
        "address": "Romans 5:8"
    },
    {
        "question": "What happened after Jesus died?",
        "answer": "After Jesus died He was buried, but God raised Him to life on the third day.",
        "address": "1 Corinthians 15:3-4"
    },
    {
        "question": "What happened after Jesus rose from the dead?",
        "answer": "After Jesus rose from the dead He went back to heaven where He never stops praying for us.",
        "address": "1 Corinthians 15:3-4"
    },
    {
        "question": "Will Jesus ever come back to earth?",
        "answer": "Yes, Jesus will return to the earth to get His Church and to judge the world.",
        "address": "Hebrews 7:25"
    },
    {
        "question": "Who is the Holy Spirit?",
        "answer": "The Holy Spirit is the Spirit of God, and He is fully God.",
        "address": "Acts 17:30-31"
    },
    {
        "question": "What does the Holy Spirit do?",
        "answer": "The Holy Spirit leads people to Jesus and then lives in people who trust Jesus, and gives them power to live lives that glorify Jesus.",
        "address": "John 14:26"
    },
    {
        "question": "What does the Bible teach about people?",
        "answer": "People are God’s special creation because they are made in God’s image.",
        "address": "Acts 1:8"
    },
    {
        "question": "How did sin mess up the human race?",
        "answer": "Sin came into the world when the first man, Adam, disobeyed God and through Adam’s disobedience sin and death came to the human race.",
        "address": "Genesis 1:26-27"
    },
    {
        "question": "Who has sinned against God?",
        "answer": "Everybody has sinned against God.",
        "address": "Romans 5:19"
    },
    {
        "question": "What do we deserve because of sin?",
        "answer": "We deserve death and eternal separation from God.",
        "address": "Romans 3:23"
    },
    {
        "question": "What does God offer us through Jesus?",
        "answer": "Through Jesus, God offers us life and fellowship with God.",
        "address": "Romans 6:23"
    },
    {
        "question": "Do we have to earn God’s love?",
        "answer": "We can’t earn God’s love. God is full of grace. He gives His love to us even though we don’t deserve it.",
        "address": "Ephesians 2:4-5"
    },
    {
        "question": "How many ways are there to be saved?",
        "answer": "There is only one way to be saved. There is no salvation apart from personal faith in Jesus Christ.",
        "address": "1 John 4:10"
    },
    {
        "question": "What is saving faith?",
        "answer": "Saving faith is faith that trusts in Jesus to do things for you that you cannot do for yourself.",
        "address": "John 14:6"
    },
    {
        "question": "Do people decide on their own to be saved?",
        "answer": "People can only be saved as God attrActs them to Jesus.",
        "address": "Ephesians 2:8-9"
    },
    {
        "question": "What must we do to be saved?",
        "answer": "To be saved, we must repent from sin and trust Christ as our Savior.",
        "address": "John 6:44"
    },
    {
        "question": "What is repentance?",
        "answer": "Repentance is turning from believing the wrong things about God, which leads to sin, and turning to believing the right things about God, which leads to victory over sin.",
        "address": "Mark 1:14-15"
    },
    {
        "question": "What is regeneration?",
        "answer": "Regeneration is what God does to bring us from death in sin to life in Christ.",
        "address": "Acts 3:19"
    },
    {
        "question": "What is justification?",
        "answer": "Justification is God’s declaration that our sin is forgiven and Christ’s righteousness has been given to us.",
        "address": "John 3:3"
    },
    {
        "question": "What is the righteousness of Christ?",
        "answer": "The righteousness of Christ is His perfect standing before God because He never sinned.",
        "address": "Romans 5:1"
    },
    {
        "question": "What is adoption?",
        "answer": "Adoption is what God does to make a person part of His family.",
        "address": "2 Corinthians 5:21"
    },
    {
        "question": "What is sanctification?",
        "answer": "Sanctification is the moment that God saves you and sets you apart to serve Him and the process He uses to make us more like Jesus.",
        "address": "John 1:12-13"
    },
    {
        "question": "How does God change us and make us more like Jesus?",
        "answer": "The Holy Spirit lives in us and He changes us.",
        "address": "1 Corinthians 6:11"
    },
    {
        "question": "What is glorification?",
        "answer": "Glorification happens when the Holy Spirit’s work of making us like Jesus is finished.",
        "address": "2 Corinthians 3:18"
    },
    {
        "question": "What is the perseverance of the saints?",
        "answer": "The perseverance of the saints means that God will never let go of those that He has adopted.",
        "address": "1 John 3:2"
    },
    {
        "question": "What is the Church Universal?",
        "answer": "The Church Universal is all the saved people from all times, every tribe, tongue, people, and nation.",
        "address": "Ephesians 1:13-14"
    },
    {
        "question": "What is a local New Testament church?",
        "answer": "A local New Testament church is a specific group of saved and baptized people in a specific place at a specific time who voluntarily joined themselves together in covenant with Christ and with each other.",
        "address": "Ephesians 4:4-6"
    },
    {
        "question": "Who is the head of the Church?",
        "answer": "Jesus is the head of the Church?",
        "address": "Acts 2:41-42"
    },
    {
        "question": "What three things is a local church supposed to do?",
        "answer": "1. Glorify God. 2. Edify God’s people. 3. Evangelize the lost.",
        "address": "Colossians 3:18"
    },
    {
        "question": "What are the two ordinances of the Church?",
        "answer": "The ordinances of the Church are Baptism and The Lord’s Supper.",
        "address": "Ephesians 4:11-12"
    },
    {
        "question": "What does baptism represent?",
        "answer": "Baptism is a symbol of what Jesus has done for us and in us through His perfect life, death in our place and resurrection from the dead.",
        "address": "Romans 6:3-4"
    },
    {
        "question": "Is baptism required to be saved?",
        "answer": "Baptism is not required to be saved because it is simply a public testimony that a person has already been saved.",
        "address": "Ephesians 2:8-9"
    },
    {
        "question": "What does The Lord’s Supper represent?",
        "answer": "The Lord’s Supper is a symbolic act in which members of the church eat the bread and drink the cup to remember how Jesus died for us and to look forward to how Jesus is going to return for us.",
        "address": "1 Corinthians 11:23-26"
    },
    {
        "question": "What is the Lord’s Day?",
        "answer": "Sunday is the first day of the week and is set apart as a day to celebrate Jesus and His victory over sin and death.",
        "address": "John 20:1"
    },
    {
        "question": "What is a tithe?",
        "answer": "A tithe is the first tenth of any money that God gives to me that I give back to Him in thanks and praise.",
        "address": "Malachi 3:8"
    },
    {
        "question": "What is the Great Commission?",
        "answer": "The Great Commission is the command that Jesus gave His Church to make disciples of all nations.",
        "address": "matthew 28:18-20"
    },
    {
        "question": "How will the world end?",
        "answer": "Jesus will return to earth and He will judge the unrighteous and they will go into eternal punishment in a place called hell and Jesus will welcome the righteous into a new heaven and a new earth where they will live with Him forever.",
        "address": "Hebrews 9:28"
    },
    {
        "question": "What is a Christian home supposed to be like?",
        "answer": "Parents are to love and train their children according to Scripture; and children are to respect, obey and learn from their parents.",
        "address": "Deuteronomy 6:6-9"
    }
]
